<svg width="12" height="14" viewBox="0 0 12 14"  xmlns="http://www.w3.org/2000/svg">
<path fill-rule="evenodd" clip-rule="evenodd" d="M5.29289 0.292893C5.68342 -0.0976311 6.31658 -0.0976311 6.70711 0.292893L11.7071 5.29289C12.0976 5.68342 12.0976 6.31658 11.7071 6.70711C11.3166 7.09763 10.6834 7.09763 10.2929 6.70711L6 2.41421L1.70711 6.70711C1.31658 7.09763 0.683417 7.09763 0.292893 6.70711C-0.0976311 6.31658 -0.0976311 5.68342 0.292893 5.29289L5.29289 0.292893Z" />
<path fill-rule="evenodd" clip-rule="evenodd" d="M5.29289 7.29289C5.68342 6.90237 6.31658 6.90237 6.70711 7.29289L11.7071 12.2929C12.0976 12.6834 12.0976 13.3166 11.7071 13.7071C11.3166 14.0976 10.6834 14.0976 10.2929 13.7071L6 9.41421L1.70711 13.7071C1.31658 14.0976 0.683417 14.0976 0.292893 13.7071C-0.0976311 13.3166 -0.0976311 12.6834 0.292893 12.2929L5.29289 7.29289Z" />
</svg>
