<svg id="Send" xmlns="http://www.w3.org/2000/svg" width="81.448" height="78.111" viewBox="0 0 81.448 78.111">
  <path id="Send-2" data-name="Send" d="M2366.464-4054.567l72.311-34.844a4.062,4.062,0,0,0,0-7.455l-72.311-34.847c-3.03-1.459-6.66.568-6.662,3.726l-.027,21.98a4.317,4.317,0,0,0,3.825,4.154l30.429,4.562a4.165,4.165,0,0,1,0,8.3l-30.429,4.558a4.321,4.321,0,0,0-3.825,4.154l.027,21.986C2359.8-4055.135,2363.434-4053.106,2366.464-4054.567Z" transform="translate(-2359.774 4132.195)"/>
</svg>
