<?xml version="1.0" encoding="UTF-8"?>
<svg width="21px" height="36px" viewBox="0 0 21 36" fill="#000" version="1.1" xmlns="http://www.w3.org/2000/svg" xmlns:xlink="http://www.w3.org/1999/xlink">
    <!-- Generator: Sketch 61 (89581) - https://sketch.com -->
    <g id="Page-1" stroke="none" stroke-width="1"  fill-rule="evenodd">
        <g id="Artboard" transform="translate(-147.000000, -79.000000)" fill-rule="nonzero">
            <g id="icon-chevron-left" transform="translate(149.000000, 81.000000)">
                <path d="M14.226233,-1.23176695 C15.2025438,-2.20807768 16.7854562,-2.20807768 17.761767,-1.23176695 C18.6956294,-0.297904516 18.7362321,1.19095836 17.8835751,2.1730817 L17.761767,2.30376695 L4.034,16.03 L17.761824,29.7572901 C18.6956563,30.6911827 18.736211,32.1800468 17.8835223,33.1621427 L17.7617099,33.292824 C16.8278173,34.2266563 15.3389532,34.267211 14.3568573,33.4145223 L14.226176,33.2927099 L-1.267824,17.7977099 C-2.20163499,16.8638386 -2.2422121,15.3750156 -1.38957246,14.3929153 L-1.26776695,14.262233 L14.226233,-1.23176695 Z" id="Chevron_Left-2"></path>
            </g>
        </g>
    </g>
</svg>