<svg id="Trashcan" xmlns="http://www.w3.org/2000/svg" width="56.739" height="72.95" viewBox="0 0 56.739 72.95">
  <path id="Trashcan-2" data-name="Trashcan" d="M9.053,67.844a8.129,8.129,0,0,0,8.106,8.106H49.581a8.129,8.129,0,0,0,8.106-8.106V19.211H9.053ZM61.739,7.053H47.554L43.5,3H23.237L19.185,7.053H5v8.106H61.739Z" transform="translate(-5 -3)"/>
</svg>
